%YAML 1.1
%TAG !u! tag:unity3d.com,2011:
--- !u!114 &11400000
MonoBehaviour:
  m_ObjectHideFlags: 0
  m_PrefabParentObject: {fileID: 0}
  m_PrefabInternal: {fileID: 0}
  m_GameObject: {fileID: 0}
  m_Enabled: 1
  m_EditorHideFlags: 0
  m_Script: {fileID: 11500000, guid: d124259ca88f48a42b59cceb23ae7827, type: 3}
  m_Name: room05
  m_EditorClassIdentifier: 
  TileTexture: {fileID: 2800000, guid: 13ac3051387cf444d9a970ffe2c36283, type: 3}
  TexturesPerRow: 2
  RoomWidth: 16
  RoomHeight: 16
  Tiles:
  - TextureID: 3
    IsWall: 0
  - TextureID: 3
    IsWall: 0
  - TextureID: 3
    IsWall: 0
  - TextureID: 0
    IsWall: 0
  - TextureID: 0
    IsWall: 0
  - TextureID: 3
    IsWall: 0
  - TextureID: 3
    IsWall: 0
  - TextureID: 3
    IsWall: 0
  - TextureID: 3
    IsWall: 0
  - TextureID: 3
    IsWall: 0
  - TextureID: 3
    IsWall: 0
  - TextureID: 0
    IsWall: 0
  - TextureID: 0
    IsWall: 0
  - TextureID: 3
    IsWall: 0
  - TextureID: 3
    IsWall: 0
  - TextureID: 3
    IsWall: 0
  - TextureID: 3
    IsWall: 0
  - TextureID: 3
    IsWall: 0
  - TextureID: 3
    IsWall: 0
  - TextureID: 0
    IsWall: 0
  - TextureID: 0
    IsWall: 0
  - TextureID: 3
    IsWall: 0
  - TextureID: 3
    IsWall: 0
  - TextureID: 3
    IsWall: 0
  - TextureID: 3
    IsWall: 0
  - TextureID: 3
    IsWall: 0
  - TextureID: 3
    IsWall: 0
  - TextureID: 0
    IsWall: 0
  - TextureID: 0
    IsWall: 0
  - TextureID: 3
    IsWall: 0
  - TextureID: 3
    IsWall: 0
  - TextureID: 3
    IsWall: 0
  - TextureID: 3
    IsWall: 0
  - TextureID: 3
    IsWall: 0
  - TextureID: 3
    IsWall: 0
  - TextureID: 0
    IsWall: 0
  - TextureID: 0
    IsWall: 0
  - TextureID: 3
    IsWall: 0
  - TextureID: 3
    IsWall: 0
  - TextureID: 3
    IsWall: 0
  - TextureID: 3
    IsWall: 0
  - TextureID: 3
    IsWall: 0
  - TextureID: 3
    IsWall: 0
  - TextureID: 0
    IsWall: 0
  - TextureID: 0
    IsWall: 0
  - TextureID: 3
    IsWall: 0
  - TextureID: 3
    IsWall: 0
  - TextureID: 3
    IsWall: 0
  - TextureID: 0
    IsWall: 0
  - TextureID: 0
    IsWall: 0
  - TextureID: 0
    IsWall: 0
  - TextureID: 0
    IsWall: 0
  - TextureID: 0
    IsWall: 0
  - TextureID: 0
    IsWall: 0
  - TextureID: 0
    IsWall: 0
  - TextureID: 0
    IsWall: 0
  - TextureID: 0
    IsWall: 0
  - TextureID: 0
    IsWall: 0
  - TextureID: 0
    IsWall: 0
  - TextureID: 0
    IsWall: 0
  - TextureID: 0
    IsWall: 0
  - TextureID: 0
    IsWall: 0
  - TextureID: 0
    IsWall: 0
  - TextureID: 0
    IsWall: 0
  - TextureID: 0
    IsWall: 0
  - TextureID: 0
    IsWall: 0
  - TextureID: 0
    IsWall: 0
  - TextureID: 0
    IsWall: 0
  - TextureID: 0
    IsWall: 0
  - TextureID: 0
    IsWall: 0
  - TextureID: 0
    IsWall: 0
  - TextureID: 0
    IsWall: 0
  - TextureID: 0
    IsWall: 0
  - TextureID: 0
    IsWall: 0
  - TextureID: 0
    IsWall: 0
  - TextureID: 0
    IsWall: 0
  - TextureID: 0
    IsWall: 0
  - TextureID: 0
    IsWall: 0
  - TextureID: 0
    IsWall: 0
  - TextureID: 0
    IsWall: 0
  - TextureID: 3
    IsWall: 0
  - TextureID: 3
    IsWall: 0
  - TextureID: 3
    IsWall: 0
  - TextureID: 3
    IsWall: 0
  - TextureID: 3
    IsWall: 0
  - TextureID: 3
    IsWall: 0
  - TextureID: 0
    IsWall: 0
  - TextureID: 0
    IsWall: 0
  - TextureID: 0
    IsWall: 0
  - TextureID: 0
    IsWall: 0
  - TextureID: 3
    IsWall: 0
  - TextureID: 3
    IsWall: 0
  - TextureID: 3
    IsWall: 0
  - TextureID: 3
    IsWall: 0
  - TextureID: 3
    IsWall: 0
  - TextureID: 3
    IsWall: 0
  - TextureID: 3
    IsWall: 0
  - TextureID: 3
    IsWall: 0
  - TextureID: 3
    IsWall: 0
  - TextureID: 3
    IsWall: 0
  - TextureID: 3
    IsWall: 0
  - TextureID: 3
    IsWall: 0
  - TextureID: 0
    IsWall: 0
  - TextureID: 0
    IsWall: 0
  - TextureID: 0
    IsWall: 0
  - TextureID: 0
    IsWall: 0
  - TextureID: 3
    IsWall: 0
  - TextureID: 3
    IsWall: 0
  - TextureID: 3
    IsWall: 0
  - TextureID: 3
    IsWall: 0
  - TextureID: 3
    IsWall: 0
  - TextureID: 3
    IsWall: 0
  - TextureID: 3
    IsWall: 0
  - TextureID: 3
    IsWall: 0
  - TextureID: 3
    IsWall: 0
  - TextureID: 3
    IsWall: 0
  - TextureID: 3
    IsWall: 0
  - TextureID: 3
    IsWall: 0
  - TextureID: 0
    IsWall: 0
  - TextureID: 0
    IsWall: 0
  - TextureID: 0
    IsWall: 0
  - TextureID: 0
    IsWall: 0
  - TextureID: 3
    IsWall: 0
  - TextureID: 3
    IsWall: 0
  - TextureID: 3
    IsWall: 0
  - TextureID: 3
    IsWall: 0
  - TextureID: 3
    IsWall: 0
  - TextureID: 3
    IsWall: 0
  - TextureID: 3
    IsWall: 0
  - TextureID: 3
    IsWall: 0
  - TextureID: 3
    IsWall: 0
  - TextureID: 3
    IsWall: 0
  - TextureID: 3
    IsWall: 0
  - TextureID: 3
    IsWall: 0
  - TextureID: 0
    IsWall: 0
  - TextureID: 0
    IsWall: 0
  - TextureID: 0
    IsWall: 0
  - TextureID: 0
    IsWall: 0
  - TextureID: 3
    IsWall: 0
  - TextureID: 3
    IsWall: 0
  - TextureID: 3
    IsWall: 0
  - TextureID: 3
    IsWall: 0
  - TextureID: 3
    IsWall: 0
  - TextureID: 3
    IsWall: 0
  - TextureID: 3
    IsWall: 0
  - TextureID: 3
    IsWall: 0
  - TextureID: 3
    IsWall: 0
  - TextureID: 3
    IsWall: 0
  - TextureID: 3
    IsWall: 0
  - TextureID: 3
    IsWall: 0
  - TextureID: 0
    IsWall: 0
  - TextureID: 0
    IsWall: 0
  - TextureID: 0
    IsWall: 0
  - TextureID: 0
    IsWall: 0
  - TextureID: 3
    IsWall: 0
  - TextureID: 3
    IsWall: 0
  - TextureID: 3
    IsWall: 0
  - TextureID: 3
    IsWall: 0
  - TextureID: 3
    IsWall: 0
  - TextureID: 3
    IsWall: 0
  - TextureID: 3
    IsWall: 0
  - TextureID: 3
    IsWall: 0
  - TextureID: 3
    IsWall: 0
  - TextureID: 3
    IsWall: 0
  - TextureID: 3
    IsWall: 0
  - TextureID: 3
    IsWall: 0
  - TextureID: 0
    IsWall: 0
  - TextureID: 0
    IsWall: 0
  - TextureID: 0
    IsWall: 0
  - TextureID: 0
    IsWall: 0
  - TextureID: 3
    IsWall: 0
  - TextureID: 3
    IsWall: 0
  - TextureID: 3
    IsWall: 0
  - TextureID: 3
    IsWall: 0
  - TextureID: 3
    IsWall: 0
  - TextureID: 3
    IsWall: 0
  - TextureID: 0
    IsWall: 0
  - TextureID: 0
    IsWall: 0
  - TextureID: 0
    IsWall: 0
  - TextureID: 0
    IsWall: 0
  - TextureID: 0
    IsWall: 0
  - TextureID: 0
    IsWall: 0
  - TextureID: 0
    IsWall: 0
  - TextureID: 0
    IsWall: 0
  - TextureID: 0
    IsWall: 0
  - TextureID: 0
    IsWall: 0
  - TextureID: 0
    IsWall: 0
  - TextureID: 0
    IsWall: 0
  - TextureID: 0
    IsWall: 0
  - TextureID: 0
    IsWall: 0
  - TextureID: 0
    IsWall: 0
  - TextureID: 0
    IsWall: 0
  - TextureID: 0
    IsWall: 0
  - TextureID: 0
    IsWall: 0
  - TextureID: 0
    IsWall: 0
  - TextureID: 0
    IsWall: 0
  - TextureID: 0
    IsWall: 0
  - TextureID: 0
    IsWall: 0
  - TextureID: 0
    IsWall: 0
  - TextureID: 0
    IsWall: 0
  - TextureID: 0
    IsWall: 0
  - TextureID: 0
    IsWall: 0
  - TextureID: 0
    IsWall: 0
  - TextureID: 0
    IsWall: 0
  - TextureID: 0
    IsWall: 0
  - TextureID: 0
    IsWall: 0
  - TextureID: 0
    IsWall: 0
  - TextureID: 0
    IsWall: 0
  - TextureID: 3
    IsWall: 0
  - TextureID: 3
    IsWall: 0
  - TextureID: 3
    IsWall: 0
  - TextureID: 0
    IsWall: 0
  - TextureID: 0
    IsWall: 0
  - TextureID: 3
    IsWall: 0
  - TextureID: 3
    IsWall: 0
  - TextureID: 3
    IsWall: 0
  - TextureID: 3
    IsWall: 0
  - TextureID: 3
    IsWall: 0
  - TextureID: 3
    IsWall: 0
  - TextureID: 0
    IsWall: 0
  - TextureID: 0
    IsWall: 0
  - TextureID: 3
    IsWall: 0
  - TextureID: 3
    IsWall: 0
  - TextureID: 3
    IsWall: 0
  - TextureID: 3
    IsWall: 0
  - TextureID: 3
    IsWall: 0
  - TextureID: 3
    IsWall: 0
  - TextureID: 0
    IsWall: 0
  - TextureID: 0
    IsWall: 0
  - TextureID: 3
    IsWall: 0
  - TextureID: 3
    IsWall: 0
  - TextureID: 3
    IsWall: 0
  - TextureID: 3
    IsWall: 0
  - TextureID: 3
    IsWall: 0
  - TextureID: 3
    IsWall: 0
  - TextureID: 0
    IsWall: 0
  - TextureID: 0
    IsWall: 0
  - TextureID: 3
    IsWall: 0
  - TextureID: 3
    IsWall: 0
  - TextureID: 3
    IsWall: 0
  - TextureID: 3
    IsWall: 0
  - TextureID: 3
    IsWall: 0
  - TextureID: 3
    IsWall: 0
  - TextureID: 0
    IsWall: 0
  - TextureID: 0
    IsWall: 0
  - TextureID: 3
    IsWall: 0
  - TextureID: 3
    IsWall: 0
  - TextureID: 3
    IsWall: 0
  - TextureID: 3
    IsWall: 0
  - TextureID: 3
    IsWall: 0
  - TextureID: 3
    IsWall: 0
  - TextureID: 0
    IsWall: 0
  - TextureID: 0
    IsWall: 0
  - TextureID: 3
    IsWall: 0
  - TextureID: 3
    IsWall: 0
  - TextureID: 3
    IsWall: 0
